{
	"id": "dc3dd4e5-5c96-445d-a132-90d3af66b3c2",
	"name": "CodeChallengeTest",
	"values": [
		{
			"key": "host",
			"value": "http://localhost:8081/CodeChallenge/api",
			"description": "",
			"enabled": true
		}
	],
	"_postman_variable_scope": "environment",
	"_postman_exported_at": "2019-02-15T15:44:29.406Z",
	"_postman_exported_using": "Postman/6.7.1"
}